<svg id="logo" width="255" height="36" viewBox="0 0 255 36" fill="none" xmlns="http://www.w3.org/2000/svg">
  <path d="M70.7081 4C71.1356 4.79739 71.6433 5.78084 72.2311 6.95035C72.7922 8.11986 73.4067 9.39569 74.0213 10.7513C74.6358 12.1068 75.2503 13.5155 75.8649 14.9509C76.4794 16.3862 77.0405 17.7151 77.5749 18.991C78.1093 17.7417 78.6971 16.3862 79.2849 14.9509C79.8995 13.5155 80.514 12.1334 81.1286 10.7513C81.7431 9.39569 82.3576 8.11986 82.9187 6.95035C83.4798 5.78084 83.9875 4.79739 84.4417 4H89.6252C89.8657 5.67452 90.1062 7.5351 90.2932 9.60833C90.507 11.6815 90.694 13.8345 90.8276 16.0672C90.9879 18.2999 91.1215 20.5592 91.2551 22.7919C91.3887 25.0512 91.4956 27.151 91.6025 29.1444H86.0716C85.9914 26.6991 85.9113 24.0411 85.7777 21.1705C85.6441 18.2999 85.4838 15.4027 85.2433 12.4524C84.8158 13.4624 84.3081 14.6053 83.7738 15.828C83.2394 17.0507 82.705 18.2999 82.1706 19.5226C81.6362 20.7452 81.1286 21.9413 80.6476 23.0577C80.1667 24.174 79.7392 25.1309 79.3918 25.9549H75.4107C75.0633 25.1575 74.6625 24.2006 74.1549 23.0577C73.6472 21.9147 73.1662 20.7452 72.6319 19.5226C72.0975 18.2999 71.5898 17.0507 71.0287 15.828C70.4943 14.6053 70.0134 13.4624 69.5592 12.4524C69.3187 15.3761 69.1317 18.2733 69.0248 21.1705C68.8912 24.0411 68.811 26.6991 68.7309 29.1444H63.2C63.3069 27.151 63.4138 25.0512 63.5474 22.7919C63.681 20.5326 63.8146 18.2999 63.9749 16.0672C64.1352 13.8345 64.3222 11.6815 64.5092 9.60833C64.723 7.5351 64.9368 5.67452 65.1772 4H70.7081Z" fill="white"/>
  <path d="M114.287 19.5755C114.287 21.064 114.073 22.4461 113.619 23.6954C113.192 24.9446 112.55 26.0078 111.722 26.885C110.894 27.7621 109.905 28.4532 108.756 28.9316C107.607 29.41 106.298 29.6493 104.882 29.6493C103.466 29.6493 102.183 29.41 101.034 28.9316C99.8854 28.4532 98.8968 27.7621 98.0685 26.885C97.2402 26.0078 96.5989 24.9446 96.1447 23.6954C95.6905 22.4461 95.45 21.0906 95.45 19.5755C95.45 18.0871 95.6905 16.7049 96.1714 15.4822C96.6524 14.2596 97.2936 13.1964 98.1486 12.3193C98.9769 11.4421 99.9923 10.7776 101.141 10.2992C102.29 9.82076 103.546 9.58154 104.909 9.58154C106.298 9.58154 107.554 9.82076 108.729 10.2992C109.878 10.7776 110.867 11.4687 111.695 12.3193C112.524 13.1964 113.165 14.233 113.619 15.4822C114.047 16.7049 114.287 18.0605 114.287 19.5755ZM108.756 19.5755C108.756 17.901 108.409 16.5986 107.741 15.6417C107.073 14.6849 106.111 14.2064 104.882 14.2064C103.653 14.2064 102.691 14.6849 101.996 15.6417C101.328 16.5986 100.981 17.901 100.981 19.5755C100.981 21.25 101.328 22.579 101.996 23.5359C102.664 24.5194 103.626 24.9978 104.882 24.9978C106.111 24.9978 107.073 24.5194 107.741 23.5359C108.409 22.5525 108.756 21.25 108.756 19.5755Z" fill="white"/>
  <path d="M118.482 10.7245C119.417 10.4587 120.593 10.2195 122.062 9.9803C123.532 9.74108 125.055 9.63477 126.658 9.63477C128.288 9.63477 129.65 9.8474 130.719 10.2727C131.788 10.698 132.67 11.2827 133.284 12.0801C133.926 12.8509 134.353 13.7812 134.647 14.8444C134.914 15.9076 135.048 17.1037 135.048 18.4061V29.1709H129.624V19.044C129.624 17.2897 129.383 16.0671 128.929 15.3494C128.475 14.6318 127.593 14.2596 126.337 14.2596C125.937 14.2596 125.536 14.2862 125.108 14.3128C124.681 14.3394 124.28 14.3925 123.933 14.4457V29.1709H118.509V10.7245H118.482Z" fill="white"/>
  <path d="M139.056 19.7616C139.056 18.0605 139.323 16.5986 139.83 15.3228C140.365 14.0469 141.033 12.9838 141.888 12.1598C142.743 11.3092 143.705 10.6713 144.827 10.246C145.922 9.82076 147.071 9.58154 148.247 9.58154C150.972 9.58154 153.11 10.4055 154.713 12.08C156.289 13.728 157.091 16.1733 157.091 19.3895C157.091 19.7084 157.091 20.054 157.064 20.4261C157.038 20.7982 157.011 21.1437 156.984 21.4361H144.667C144.8 22.5525 145.308 23.4296 146.243 24.0941C147.178 24.7586 148.407 25.0775 149.957 25.0775C150.946 25.0775 151.934 24.9978 152.896 24.8117C153.858 24.6257 154.633 24.413 155.247 24.1472L155.969 28.5329C155.675 28.6658 155.301 28.8253 154.793 28.9582C154.312 29.0911 153.778 29.224 153.163 29.3303C152.576 29.4366 151.934 29.5429 151.24 29.5961C150.572 29.6758 149.877 29.7024 149.209 29.7024C147.472 29.7024 145.976 29.4366 144.693 28.9316C143.411 28.4266 142.369 27.7355 141.514 26.8584C140.686 25.9812 140.044 24.9181 139.643 23.722C139.243 22.4727 139.056 21.1437 139.056 19.7616ZM151.827 17.6884C151.801 17.2365 151.721 16.7847 151.587 16.3594C151.453 15.9341 151.24 15.5354 150.972 15.1899C150.705 14.8443 150.331 14.5785 149.904 14.3659C149.476 14.1533 148.942 14.0469 148.327 14.0469C147.713 14.0469 147.205 14.1533 146.751 14.3659C146.323 14.5785 145.949 14.8443 145.655 15.1899C145.361 15.5354 145.148 15.9341 144.987 16.3594C144.827 16.8112 144.72 17.2631 144.64 17.7149H151.827V17.6884Z" fill="white"/>
  <path d="M178.333 10.0601C177.237 13.7281 176.088 17.1834 174.886 20.3996C173.684 23.6157 172.374 26.7256 170.985 29.7556C170.477 30.8454 169.97 31.7757 169.462 32.5199C168.954 33.2908 168.393 33.9021 167.779 34.4071C167.164 34.9121 166.469 35.2577 165.721 35.4969C164.946 35.7361 164.065 35.8424 163.049 35.8424C162.194 35.8424 161.42 35.7627 160.698 35.6032C159.977 35.4437 159.389 35.2577 158.935 35.0716L159.87 30.7657C160.431 30.9517 160.939 31.0846 161.366 31.1644C161.794 31.2441 162.275 31.2707 162.756 31.2707C163.717 31.2707 164.466 31.0049 165 30.4999C165.534 29.9683 165.962 29.2506 166.336 28.3469C165.107 25.9282 163.851 23.217 162.622 20.2135C161.393 17.21 160.217 13.8344 159.122 10.0866H164.84C165.08 11.0169 165.374 12.0535 165.695 13.1433C166.015 14.2331 166.363 15.3494 166.737 16.4924C167.111 17.6087 167.485 18.6985 167.859 19.7882C168.233 20.8514 168.607 21.8083 168.928 22.6854C169.248 21.8083 169.569 20.8514 169.916 19.7882C170.264 18.7251 170.584 17.6353 170.932 16.4924C171.252 15.376 171.573 14.2597 171.893 13.1433C172.187 12.0535 172.481 11.0169 172.722 10.0866H178.333V10.0601Z" fill="white"/>
  <path d="M200.323 4V8.83751H192.708V29.1444H187.017V8.83751H179.402V4H200.323Z" fill="white"/>
  <path d="M212.64 14.8447C212.159 14.7118 211.571 14.6055 210.93 14.4726C210.262 14.3397 209.567 14.2599 208.819 14.2599C208.472 14.2599 208.071 14.2865 207.59 14.3397C207.109 14.3928 206.762 14.4726 206.521 14.5523V29.1446H201.097V11.0703C202.059 10.7248 203.208 10.4059 204.544 10.1135C205.88 9.8211 207.35 9.66162 208.98 9.66162C209.274 9.66162 209.621 9.6882 210.048 9.71478C210.449 9.74136 210.877 9.79452 211.277 9.84768C211.678 9.90084 212.106 9.98058 212.507 10.0603C212.907 10.1401 213.281 10.2464 213.575 10.3793L212.64 14.8447Z" fill="white"/>
  <path d="M215.205 19.7616C215.205 18.0605 215.472 16.5986 215.98 15.3228C216.514 14.0469 217.182 12.9838 218.037 12.1598C218.892 11.3092 219.854 10.6713 220.977 10.246C222.072 9.82076 223.221 9.58154 224.397 9.58154C227.122 9.58154 229.259 10.4055 230.863 12.08C232.439 13.728 233.241 16.1733 233.241 19.3895C233.241 19.7084 233.241 20.054 233.214 20.4261C233.187 20.7982 233.16 21.1437 233.134 21.4361H220.816C220.95 22.5525 221.457 23.4296 222.393 24.0941C223.328 24.7586 224.557 25.0775 226.107 25.0775C227.095 25.0775 228.084 24.9978 229.046 24.8117C230.008 24.6257 230.782 24.413 231.397 24.1472L232.118 28.5329C231.825 28.6658 231.45 28.8253 230.943 28.9582C230.462 29.0911 229.927 29.224 229.313 29.3303C228.725 29.4366 228.084 29.5429 227.389 29.5961C226.721 29.6758 226.026 29.7024 225.358 29.7024C223.622 29.7024 222.125 29.4366 220.843 28.9316C219.56 28.4266 218.518 27.7355 217.663 26.8584C216.835 25.9812 216.194 24.9181 215.793 23.722C215.392 22.4727 215.205 21.1437 215.205 19.7616ZM227.977 17.6884C227.95 17.2365 227.87 16.7847 227.736 16.3594C227.603 15.9341 227.389 15.5354 227.122 15.1899C226.855 14.8443 226.481 14.5785 226.053 14.3659C225.626 14.1533 225.091 14.0469 224.477 14.0469C223.862 14.0469 223.355 14.1533 222.9 14.3659C222.473 14.5785 222.099 14.8443 221.805 15.1899C221.511 15.5354 221.297 15.9341 221.137 16.3594C220.977 16.8112 220.87 17.2631 220.79 17.7149H227.977V17.6884Z" fill="white"/>
  <path d="M236.5 19.7616C236.5 18.0605 236.768 16.5986 237.275 15.3228C237.81 14.0469 238.478 12.9838 239.333 12.1598C240.188 11.3092 241.149 10.6713 242.272 10.246C243.367 9.82076 244.516 9.58154 245.692 9.58154C248.417 9.58154 250.555 10.4055 252.158 12.08C253.734 13.728 254.536 16.1733 254.536 19.3895C254.536 19.7084 254.536 20.054 254.509 20.4261C254.482 20.7982 254.456 21.1437 254.429 21.4361H242.111C242.245 22.5525 242.753 23.4296 243.688 24.0941C244.623 24.7586 245.852 25.0775 247.402 25.0775C248.39 25.0775 249.379 24.9978 250.341 24.8117C251.303 24.6257 252.078 24.413 252.692 24.1472L253.414 28.5329C253.12 28.6658 252.746 28.8253 252.238 28.9582C251.757 29.0911 251.223 29.224 250.608 29.3303C250.02 29.4366 249.379 29.5429 248.684 29.5961C248.016 29.6758 247.322 29.7024 246.654 29.7024C244.917 29.7024 243.421 29.4366 242.138 28.9316C240.856 28.4266 239.814 27.7355 238.958 26.8584C238.13 25.9812 237.489 24.9181 237.088 23.722C236.714 22.4727 236.5 21.1437 236.5 19.7616ZM249.272 17.6884C249.245 17.2365 249.165 16.7847 249.032 16.3594C248.898 15.9341 248.684 15.5354 248.417 15.1899C248.15 14.8443 247.776 14.5785 247.348 14.3659C246.921 14.1533 246.386 14.0469 245.772 14.0469C245.157 14.0469 244.65 14.1533 244.195 14.3659C243.768 14.5785 243.394 14.8443 243.1 15.1899C242.806 15.5354 242.592 15.9341 242.432 16.3594C242.272 16.8112 242.165 17.2631 242.085 17.7149H249.272V17.6884Z" fill="white"/>
  <path d="M30.356 0.157715L27.4547 20.2644L32.7667 34.9417L36.3614 15.8804L30.356 0.157715Z" fill="#114bb6"/>
  <path d="M15.0707 10.8354L9.75867 25.2248L13.7267 34.8888L19.1133 22.3448L15.0707 10.8354Z" fill="#114bb6"/>
  <path d="M15.0707 10.8354L21.492 29.1074C21.492 29.1074 24.596 37.7794 32.7667 34.9421L25.8013 15.7101C25.8013 15.7101 22.932 8.63811 15.0707 10.8354Z" fill="url(#paint)"/>
  <path d="M13.7267 34.889L8.26537 21.609C7.66804 20.1584 6.42004 19.0597 4.8947 18.7077C3.2627 18.3237 1.30004 18.569 0.297371 21.321C-0.139963 22.4944 -0.0866293 23.785 0.404037 24.9264L3.17737 31.401C3.17737 31.401 6.6867 37.801 13.7267 34.889Z" fill="url(#paint1)"/>
  <path d="M42.836 32.8299L30.356 0.157931C30.356 0.157931 37.3853 -1.3354 40.7666 4.86193L50.8786 29.5659C50.8786 29.5659 52.3186 33.9179 49.0973 35.3046C49.0973 35.3046 46.6653 36.7766 43.956 34.4406C43.4653 34.0033 43.0813 33.4486 42.836 32.8299Z" fill="url(#paint2)"/>
  <defs>
    <linearGradient id="paint" x1="38.7933" y1="-12.5139" x2="59.5827" y2="8.61677" gradientUnits="userSpaceOnUse">
      <stop stop-color="#00ffd8"/>
      <stop offset="1" stop-color="#0054ff"/>
    </linearGradient>
    <linearGradient id="paint1" x1="11.9347" y1="5.98235" x2="27.3587" y2="20.553" gradientUnits="userSpaceOnUse">
      <stop stop-color="#00ffd8"/>
      <stop offset="1" stop-color="#0054ff"/>
    </linearGradient>
    <linearGradient id="paint2" x1="71.5613" y1="-43.4154" x2="100.276" y2="-16.2581" gradientUnits="userSpaceOnUse">
      <stop stop-color="#00ffd8"/>
      <stop offset="1" stop-color="#0054ff"/>
    </linearGradient>
  </defs>
</svg>
