<svg width="103" height="157" viewBox="0 0 103 157" fill="none" xmlns="http://www.w3.org/2000/svg">
  <path fill-rule="evenodd" clip-rule="evenodd" d="M14.9939 70.6035C12.6625 70.6035 10.6641 72.6019 10.6641 74.9334V118.898C10.6641 121.23 12.6625 123.228 14.9939 123.228C17.3254 123.228 19.3238 121.23 19.3238 118.898V74.9334C19.3238 72.6019 17.3254 70.6035 14.9939 70.6035ZM23.3206 89.4219C21.1557 89.4219 19.3238 91.2537 19.3238 93.4187V117.399C19.3238 115.235 21.1557 113.403 23.3206 113.403C25.4855 113.403 27.3174 115.235 27.3174 117.399V93.4187C27.3174 91.0872 25.4855 89.4219 23.3206 89.4219ZM27.3174 97.2486C27.3174 94.0844 29.9819 91.4199 33.1461 91.4199C35.9365 91.4199 38.3383 93.3627 38.8668 96.106C39.2736 93.3098 41.7468 91.0869 44.6369 91.0869C47.801 91.0869 50.4655 93.7514 50.4655 96.9156V100.721C50.4788 95.4035 54.8035 91.0869 60.1244 91.0869C65.62 91.0869 69.9498 95.5833 69.7833 100.912V121.063C69.7833 126.392 65.4535 130.722 60.1244 130.722C54.7953 130.722 50.4655 126.392 50.4655 121.063V117.214C50.4551 114.058 47.7948 111.404 44.6369 111.404C41.9388 111.404 39.604 113.341 38.9747 115.874V132.554C38.9747 135.718 36.3102 138.382 33.1461 138.382C29.9819 138.382 27.3174 135.718 27.3174 132.554V97.2486Z" fill="#2c81fe"/>
  <path fill-rule="evenodd" clip-rule="evenodd" d="M19.9899 10.3183C-1.15977 22.4752 -6.3223 53.1173 8.33261 78.7634C23.1541 104.243 52.1308 115.068 73.2805 102.911L82.6064 97.5816L81.7737 96.2494C95.5959 81.5945 97.4278 56.2814 84.9378 34.6321C72.4478 12.9828 49.6328 1.82511 29.9819 6.48803L29.1492 5.15576L19.9899 10.3183Z" fill="#2c81fe"/>
  <path fill-rule="evenodd" clip-rule="evenodd" d="M29.3158 4.98946C8.1661 17.1464 3.00358 47.7884 17.6585 73.4345C32.4799 98.9141 61.4567 109.739 82.6064 97.5818C103.756 85.4249 108.919 54.7828 94.2637 29.1368C79.4423 3.6572 50.4655 -7.16745 29.3158 4.98946Z" fill="#59b2ff"/>
  <path fill-rule="evenodd" clip-rule="evenodd" d="M35.8105 16.3138C19.8234 25.4731 15.9931 48.6212 26.9843 67.9391C38.142 87.2569 60.1244 95.417 76.1115 86.2577C92.0987 77.0984 95.929 53.9503 84.9378 34.6325C73.7801 15.3146 51.7977 7.1545 35.8105 16.3138Z" fill="#ff75ca"/>
  <path d="M61.7898 90.7541C67.1188 90.7541 72.1148 89.4218 76.6112 86.9238C84.6048 82.4274 89.7673 74.2673 91.4326 64.4418C93.098 54.4499 91.0996 43.7917 85.604 34.2993C77.7769 20.6436 63.9547 11.8174 50.299 11.8174C44.9699 11.8174 39.9739 13.1497 35.4775 15.6476C19.1573 25.14 15.1605 48.6212 26.4847 68.2721C34.3118 81.9278 48.134 90.7541 61.7898 90.7541ZM50.299 13.3162C63.4551 13.3162 76.7777 21.8094 84.2717 34.9655C89.6008 44.1248 91.5992 54.4499 89.9338 64.1088C88.2685 73.6012 83.2725 81.2617 75.7785 85.5915C71.6152 88.0895 66.7857 89.2552 61.7898 89.2552C48.8002 89.2552 35.311 80.7621 27.817 67.606C16.8258 48.6212 20.6561 25.9727 36.3102 16.9799C40.4735 14.4819 45.1364 13.3162 50.299 13.3162Z" fill="#12006c"/>
  <path d="M91.0996 31.8013C91.2661 31.8013 91.4327 31.8013 91.4327 31.6347C91.7657 31.4682 91.9323 30.9686 91.7657 30.6355C91.0996 29.4698 90.4335 28.4706 89.7673 27.3049C89.6008 26.9718 89.1012 26.8053 88.7681 27.1383C88.4351 27.3049 88.2685 27.8045 88.6016 28.1375C89.2677 29.1367 89.9339 30.3025 90.6 31.3017C90.6 31.6347 90.7665 31.8013 91.0996 31.8013ZM86.7697 25.473C86.9363 25.473 87.1028 25.473 87.2693 25.3065C87.6024 25.1399 87.6024 24.6403 87.4359 24.3073C72.6144 4.82289 48.9667 -2.00495 31.1477 8.3201C30.8146 8.48664 30.6481 8.98622 30.8146 9.31929C30.9811 9.65235 31.4808 9.81891 31.8138 9.65237C48.9667 -0.173079 71.7818 6.3217 86.1036 25.3065C86.4367 25.3065 86.6032 25.473 86.7697 25.473Z" fill="white"/>
  <path d="M62.9555 98.914C69.1173 98.914 75.279 97.4152 80.7746 94.2511C81.1076 94.0845 81.2742 93.585 81.1076 93.2519C80.9411 92.9188 80.4415 92.7523 80.1084 92.9188C62.9555 102.911 39.1413 95.7499 24.986 76.2655C24.8195 75.9325 24.3199 75.9324 23.9868 76.099C23.6537 76.2655 23.6537 76.7651 23.8203 77.0982C33.8122 91.087 48.8002 98.914 62.9555 98.914ZM22.1549 74.2671C22.3215 74.2671 22.488 74.2671 22.488 74.1006C22.8211 73.9341 22.9876 73.4344 22.6545 73.1014C22.1549 72.4352 21.8219 71.7691 21.3223 71.103C21.1557 70.7699 20.6561 70.6034 20.3231 70.7699C19.99 70.9365 19.8235 71.436 19.99 71.7691C20.4896 72.4352 20.8227 73.2679 21.3223 73.934C21.6553 74.2671 21.9884 74.2671 22.1549 74.2671Z" fill="#2c81fe"/>
  <path d="M60.7905 84.5923C64.9538 84.5923 68.9506 83.5931 72.4478 81.7612C78.776 78.4306 83.439 72.2688 85.2708 64.7749C85.4374 64.4418 85.1043 63.9422 84.7712 63.9422C84.4382 63.7757 83.9386 64.1087 83.9386 64.4418C82.1067 71.6027 77.7769 77.4314 71.7817 80.5955C65.6199 83.7596 58.2925 84.0927 50.965 81.4282C37.8089 76.4322 27.8169 62.7765 26.9843 48.1215C26.9843 47.7885 26.6512 47.4554 26.1516 47.4554C25.8185 47.4554 25.4855 47.7885 25.4855 48.2881C26.3181 63.6091 36.6432 77.7644 50.2989 82.927C53.9626 83.9262 57.4598 84.5923 60.7905 84.5923ZM85.6039 55.2825C86.1035 55.2825 86.4366 54.9494 86.27 54.4498C85.4374 39.1288 75.1123 24.9734 61.4566 19.8109C53.7961 16.9799 45.969 17.3129 39.4742 20.8101C33.146 24.1408 28.4831 30.3025 26.6512 37.7965C26.4847 38.1296 26.8177 38.6292 27.1508 38.6292C27.4839 38.7957 27.9835 38.4626 27.9835 38.1296C29.8153 30.9686 34.1452 25.14 40.1404 21.9759C46.3021 18.8117 53.6296 18.4787 60.957 21.1432C74.2797 26.1392 84.1051 39.7949 84.9378 54.4498C84.7712 54.9494 85.1043 55.2825 85.6039 55.2825Z" fill="#e33ba3"/>
  <path d="M27.1508 43.7917C28.4831 43.7917 29.6488 42.7925 29.8153 41.4602C30.1484 39.7949 28.9827 37.963 27.4839 37.2969C25.8185 36.6308 24.1532 37.63 23.8201 39.4618C23.4871 41.1272 24.6528 42.959 26.1516 43.6252C26.4847 43.6252 26.8177 43.7917 27.1508 43.7917ZM26.4847 38.6292C26.6512 38.6292 26.8177 38.6292 26.9843 38.7957C27.9835 39.1288 28.6496 40.2945 28.4831 41.2937C28.3165 42.1264 27.6504 42.626 26.8177 42.2929C25.8185 41.9598 25.1524 40.7941 25.3189 39.7949C25.3189 38.9622 25.8185 38.6292 26.4847 38.6292Z" fill="#e33ba3"/>
  <path d="M85.6039 65.4411C86.9362 65.4411 88.1019 64.4419 88.2685 63.1096C88.6015 61.4443 87.4358 59.6124 85.937 58.9463C84.2717 58.2802 82.6063 59.2794 82.2733 61.1112C81.9402 62.7766 83.1059 64.6084 84.6047 65.2746C84.7713 65.4411 85.1043 65.4411 85.6039 65.4411ZM84.7713 60.2786C84.9378 60.2786 85.1043 60.2786 85.2709 60.4451C86.2701 60.7782 86.9362 61.9439 86.7697 62.9431C86.6031 63.7758 85.937 64.2754 85.1043 63.9423C84.1051 63.6092 83.439 62.4435 83.6055 61.4443C83.7721 60.7782 84.1051 60.2786 84.7713 60.2786Z" fill="#e33ba3"/>
  <path d="M54.2958 108.74C61.2902 108.74 67.785 107.074 73.7802 103.577C74.1133 103.411 74.2798 102.911 74.1133 102.578C73.9467 102.245 73.4471 102.078 73.1141 102.245C63.1221 108.074 50.9652 108.74 38.8083 104.243C26.6513 99.7469 16.1598 90.5876 8.99885 78.2641C8.83231 77.9311 8.3327 77.7645 7.99963 77.9311C7.66657 78.0976 7.50004 78.5972 7.66657 78.9302C14.8275 91.4202 25.6521 100.913 38.1421 105.576C43.6377 107.74 48.9668 108.74 54.2958 108.74Z" fill="#2c81fe"/>
  <path fill-rule="evenodd" clip-rule="evenodd" d="M33.1461 143.045C29.9819 143.045 27.3174 145.709 27.3174 148.874V150.206C27.3174 153.37 29.9819 156.035 33.1461 156.035C36.3102 156.035 38.9747 153.37 38.9747 150.206V148.874C38.9747 145.709 36.3102 143.045 33.1461 143.045Z" fill="#2c81fe"/>
</svg>
