<svg width="149" height="22" viewBox="0 0 149 22" fill="none" xmlns="http://www.w3.org/2000/svg">
  <path fill-rule="evenodd" clip-rule="evenodd" d="M2.94184 15.5918L100.318 15.5918C101.936 15.5918 103.26 16.9156 103.26 18.5337C103.26 20.1517 101.936 21.4756 100.318 21.4756L2.94184 21.4756C1.3238 21.4756 -4.5722e-05 20.1517 -4.57413e-05 18.5337C-4.57606e-05 16.9156 1.3238 15.5918 2.94184 15.5918Z" fill="#59b2ff"/>
  <path fill-rule="evenodd" clip-rule="evenodd" d="M113.115 15.5918L145.77 15.5918C147.388 15.5918 148.712 16.9156 148.712 18.5337C148.712 20.1517 147.388 21.4756 145.77 21.4756L113.115 21.4756C111.497 21.4756 110.173 20.1517 110.173 18.5337C110.026 16.9156 111.35 15.5918 113.115 15.5918Z" fill="#59b2ff"/>
  <path fill-rule="evenodd" clip-rule="evenodd" d="M130.62 9.29663e-08L135.474 3.50816e-08C137.092 1.57867e-08 138.416 1.32385 138.416 2.94188C138.416 4.55992 137.092 5.88377 135.474 5.88377L130.62 5.88377C129.002 5.88377 127.678 4.55992 127.678 2.94188C127.531 1.32385 129.002 1.12261e-07 130.62 9.29663e-08Z" fill="#bfe1ff"/>
  <path fill-rule="evenodd" clip-rule="evenodd" d="M112.38 9.29663e-08L117.234 3.50816e-08C118.852 1.57867e-08 120.176 1.32385 120.176 2.94188C120.176 4.55992 118.852 5.88377 117.234 5.88377L112.38 5.88377C110.762 5.88377 109.438 4.55992 109.438 2.94188C109.438 1.32385 110.762 1.12261e-07 112.38 9.29663e-08Z" fill="#bfe1ff"/>
  <path fill-rule="evenodd" clip-rule="evenodd" d="M83.4023 2.22768e-07L99.1414 3.50816e-08C100.759 1.57867e-08 102.083 1.32385 102.083 2.94188C102.083 4.55992 100.759 5.88377 99.1414 5.88377L83.4023 5.88377C81.7843 5.88377 80.4605 4.55992 80.4605 2.94188C80.3134 1.32385 81.7843 2.42063e-07 83.4023 2.22768e-07Z" fill="#bfe1ff"/>
</svg>
